<svg viewBox="0 0 177 49" xmlns="http://www.w3.org/2000/svg">
    <g>
        <title>Monitor Stand</title>
        <rect fill="none" id="canvas_background" height="51" width="179" y="-1" x="-1"/>
        <g display="none" overflow="visible" y="0" x="0" height="100%" width="100%" id="canvasGrid">
            <rect fill="url(#gridpattern)" stroke-width="0" y="0" x="0" height="100%" width="100%"/>
        </g>
    </g>
    <g>
        <title>Layer 1</title>
        <g id="svg_39">
            <g transform="matrix(0.8264463302517733,0,0,0.8264463302517733,0,0) " id="svg_36">
                <title transform="translate(-264.989990234375,-78.64999389648438) translate(0,78.64999389648438) translate(0,2.9802322387695312e-8) translate(0,-0.3800049126148224) translate(263.7799987792969,0) translate(-0.319990336894989,0) translate(-370.2599792480469,-329.1199951171875) translate(373.9999694824219,0) translate(0,330.5) ">Monitor Stand</title>
                <rect x="1.21001" y="0" width="222" height="67" id="svg_34" fill="none"/>
                <g id="svg_33" display="none">
                    <rect id="svg_37" width="800" height="600" x="2.21001" y="1" stroke-width="0" fill="url(#gridpattern)"/>
                </g>
            </g>
            <g transform="matrix(0.8264463302517733,0,0,0.8264463302517733,0,0) " id="svg_38">
                <title transform="translate(0,-0.002617368008941412) translate(-4.837806701660156,0) translate(0,-3.62892746925354) translate(0,0.0010723042069002986) translate(0,0.4762672185897827) translate(-0.0014060829998925328,0) translate(-0.01579982601106167,0) translate(-264.989990234375,-78.64999389648438) translate(0,78.64999389648438) translate(0,2.9802322387695312e-8) translate(0,-0.3800049126148224) translate(263.7799987792969,0) translate(-0.319990336894989,0) translate(-370.2599792480469,-329.1199951171875) translate(373.9999694824219,0) translate(0,330.5) ">Layer 1</title>
                <defs transform="translate(0,-0.002617368008941412) translate(-4.837806701660156,0) translate(0,-3.62892746925354) translate(0,0.0010723042069002986) translate(0,0.4762672185897827) translate(-0.0014060829998925328,0) translate(-0.01579982601106167,0) translate(-264.989990234375,-78.64999389648438) translate(0,78.64999389648438) translate(0,2.9802322387695312e-8) translate(0,-0.3800049126148224) translate(263.7799987792969,0) translate(-0.319990336894989,0) translate(-370.2599792480469,-329.1199951171875) translate(373.9999694824219,0) translate(0,330.5) ">
                    <style type="text/css">.fil18 {fill:none}
                        .fil17 {fill:#090909}
                        .fil11 {fill:#161616}
                        .fil16 {fill:#1C1C1C}
                        .fil10 {fill:#1F1F1F}
                        .fil13 {fill:#2B2B2B}
                        .fil12 {fill:#383737}
                        .fil7 {fill:#A8A8A8}
                        .fil6 {fill:#B3B3B3}
                        .fil9 {fill:#C5C5C5}
                        .fil8 {fill:#DBDBDB}</style>
                </defs>
                <g id="svg_19" stroke="null">
                    <g id="svg_20" transform="matrix(-0.05757807532107788,0,0,0.053922823901398284,47154.43463538039,-32473.383786889055) " stroke="null">
                        <g id="svg_21" stroke="null">
                            <polygon points="817106.0000000001,603004.4514608495 815343.0000000001,603004.4514608495 815247.0000000001,603181.4514608495 817106.0000000001,603181.4514608495 " class="fil6" id="svg_32" stroke="null"/>
                            <polygon points="817106.0000000001,603004.4514608495 818869.0000000001,603004.4514608495 818965.0000000001,603181.4514608495 817106.0000000001,603181.4514608495 " class="fil7" id="svg_31" stroke="null"/>
                            <rect y="603181.5508" x="815247.06272" width="1859" class="fil8" height="68.66" id="svg_30" stroke="null"/>
                            <rect y="603181.5508" x="817106.06272" width="1859" class="fil9" height="68.66" id="svg_29" stroke="null"/>
                            <polygon points="815255.0000000001,603250.4514608495 817106.0000000001,603250.4514608495 817106.0000000001,603339.4514608495 815268.0000000001,603339.4514608495 " class="fil10" id="svg_28" stroke="null"/>
                            <polygon points="818957.0000000001,603250.4514608495 817106.0000000001,603250.4514608495 817106.0000000001,603339.4514608495 818944.0000000001,603339.4514608495 " class="fil11" id="svg_27" stroke="null"/>
                            <rect y="603061.5508" x="816793.06272" width="313" class="fil12" height="120" id="svg_26" stroke="null"/>
                            <rect y="603061.5508" x="817106.06272" width="313" class="fil13" height="120" id="svg_25" stroke="null"/>
                            <rect y="602219.5508" x="816793.06272" width="313" class="fil16" height="842" id="svg_24" stroke="null"/>
                            <rect y="602219.5508" x="817106.06272" width="313" class="fil17" height="842" id="svg_23" stroke="null"/>
                            <rect y="602275.5508" x="816793.06272" width="627" class="fil18" height="197" id="svg_22" stroke="null"/>
                        </g>
                    </g>
                </g>
            </g>
        </g>
    </g>
</svg>
